…
``` r
nyc_airbnb |> 
  modelr::add_predictions(fit)
```

    ## # A tibble: 40,492 × 6
    ##    price stars borough neighbourhood room_type        pred
    ##    <dbl> <dbl> <chr>   <chr>         <chr>           <dbl>
    ##  1    99   5   Bronx   City Island   Private room     54.0
    ##  2   200  NA   Bronx   City Island   Private room     NA  
    ##  3   300  NA   Bronx   City Island   Entire home/apt  NA  
    ##  4   125   5   Bronx   City Island   Entire home/apt 159. 
    ##  5    69   5   Bronx   City Island   Private room     54.0
    ##  6   125   5   Bronx   City Island   Entire home/apt 159. 
    ##  7    85   5   Bronx   City Island   Entire home/apt 159. 
    ##  8    39   4.5 Bronx   Allerton      Private room     43.1
    ##  9    95   5   Bronx   Allerton      Entire home/apt 159. 
    ## 10   125   4.5 Bronx   Allerton      Entire home/apt 148. 
    ## # ℹ 40,482 more rows
…
